{
  "users": [
    {
      "firstName": "Abhi",
      "lastName": "Raj",
      "userName": "Abhi Raj",
      "password": "helloworld",
      "email": "avi@gmail.com",
      "id": 1
    },
    {
      "firstName": "Abhi",
      "lastName": "Rajak",
      "userName": "Abhi Rajak",
      "password": "helloworld",
      "email": "avirav01@gmail.com",
      "id": 2
    },
    {
      "firstName": "hello",
      "lastName": "world",
      "userName": "hello world",
      "password": "aaaaaaaaa",
      "email": "hello@gmail.com",
      "id": 3
    },
    {
      "firstName": "hello",
      "lastName": "world",
      "userName": "hello world",
      "password": "aaaaaaaaa",
      "email": "hello@gmail.com",
      "id": 4
    },
    {
      "firstName": "meow",
      "lastName": "world",
      "userName": "meow world",
      "password": "helloabhi",
      "email": "meow@gmail.com",
      "id": 5
    },
    {
      "firstName": "Avirav",
      "lastName": "Rajak",
      "userName": "Avirav Rajak",
      "password": "helloworld",
      "email": "avirav01@gmail.com",
      "id": 6
    },
    {
      "firstName": "hello",
      "lastName": "world",
      "userName": "hello world",
      "password": "aaaaaaaaa",
      "email": "hello@gmail.com",
      "id": 7
    }
  ],
  "tasks": [
    {
      "id": 1,
      "task": "Task1",
      "completed": true,
      "priority": 3
    },
    {
      "task": "Task random",
      "priority": 5,
      "completed": false,
      "id": 5
    },
    {
      "task": "delete task",
      "priority": 3,
      "completed": false,
      "id": 6
    },
    {
      "task": "Abx",
      "priority": 5,
      "completed": true,
      "id": 7
    }
  ]
}